Pin, Discover and Share Resources • pins
…
Notice that the full name of a pin is <owner>/<name>. This namespacing allows multiple people (or packages) to create pins with the same name.

You can then retrieve a pin through pin_get():

seattle_sales <- pin_get("hpiR/seattle_sales") %>% print()
#> # A tibble: 43,313 x 16
#>    pinx    sale_id  sale_price sale_date  use_type  area lot_sf  wfnt bldg_grade
#>    <chr>   <chr>         <int> <date>     <chr>    <int>  <int> <dbl>      <int>
#>  1 ..0001… 2013..2…     289000 2013-02-06 sfr         79   9295     0          7
#>  2 ..0001… 2013..2…     356000 2013-07-11 sfr         18   6000     0          6
#>  3 ..0001… 2010..2…     333500 2010-12-29 sfr         79   7200     0          8
#>  4 ..0001… 2016..6…     577200 2016-03-17 sfr         79   7200     0          8
#>  5 ..0001… 2012..9…     237000 2012-05-02 sfr         79   5662     0          7
#>  6 ..0001… 2014..5…     347500 2014-03-11 sfr         79   5830     0          7
#>  7 ..0001… 2012..2…     429000 2012-09-20 sfr         18  12700     0          7
#>  8 ..0003… 2015..2…     653295 2015-07-21 sfr         79   7000     0          7
#>  9 ..0003… 2014..4…     427650 2014-02-19 townhou…    79   3072     0          7
#> 10 ..0003… 2015..6…     488737 2015-03-19 townhou…    79   3072     0          7
#> # … with 43,303 more rows, and 7 more variables: tot_sf <int>, beds <int>,
#> #   baths <dbl>, age <int>, eff_age <int>, longitude <dbl>, latitude <dbl>
…
