…
We've found out that the `BSDA` package contains a `Housing` dataset, you can then retrieve this dataset using `pin_get()` as follows:

```{r eval=FALSE}
pin_get("BSDA/Housing")
```
```
# A tibble: 74 x 3
   city       year   price
   <chr>      <fct>  <int>
 1 Albany     1984   52400
 2 Anaheim    1984  134900
 3 Atlanta    1984   64600
 4 Baltimore  1984   65200
 5 Birmingham 1984   66600
 6 Boston     1984  102000
 7 Chicago    1984   77500
 8 Cincinnati 1984   59600
 9 Cleveland  1984   65600
10 Columbus   1984   60400
# … with 64 more rows
```
…
Notice that the pin returns a path to a local CSV file, which you are free to load with your favorite package.

```{r eval=FALSE}
library(readr)
pin("http://www.fhfa.gov/datatools/downloads/documents/hpi/hpi_master.csv") %>%
  read_csv(col_types = cols())
```
```
# A tibble: 108,826 x 10
   hpi_type hpi_flavor frequency level place_name place_id    yr period index_nsa
   <chr>    <chr>      <chr>     <chr> <chr>      <chr>    <dbl>  <dbl>     <dbl>
 1 traditi… purchase-… monthly   USA … East Nort… DV_ENC    1991      1      100 
 2 traditi… purchase-… monthly   USA … East Nort… DV_ENC    1991      2      101.
 3 traditi… purchase-… monthly   USA … East Nort… DV_ENC    1991      3      101.
 4 traditi… purchase-… monthly   USA … East Nort… DV_ENC    1991      4      102.
 5 traditi… purchase-… monthly   USA … East Nort… DV_ENC    1991      5      102.
 6 traditi… purchase-… monthly   USA … East Nort… DV_ENC    1991      6      103.
 7 traditi… purchase-… monthly   USA … East Nort… DV_ENC    1991      7      103.
 8 traditi… purchase-… monthly   USA … East Nort… DV_ENC    1991      8      103.
 9 traditi… purchase-… monthly   USA … East Nort… DV_ENC    1991      9      103.
10 traditi… purchase-… monthly   USA … East Nort… DV_ENC    1991     10      103.
# … with 108,816 more rows, and 1 more variable: index_sa <dbl>
```

The `pins` package tries to be smart about downloading files only when the file has changed using headers like [cache-control](https://developer.mozilla.org/en-US/docs/Web/HTTP/Headers/Cache-Control) and [ETag](https://developer.mozilla.org/en-US/docs/Web/HTTP/Headers/ETag) to avoid downloading files when they have not changed or when the cache has not expired.

Notice that `pin()` assigned a name automatically, `HPI_master` for the previous example; however, you can choose your own name and be explicit about retrieving a pin with `pin_get()`:

```{r eval=FALSE}
pin("http://www.fhfa.gov/datatools/downloads/documents/hpi/hpi_master.csv",
    name = "home_price_indexes")

pin_get("home_price_indexes") %>%
  read_csv(col_types = cols())
```
```
# A tibble: 108,826 x 10
   hpi_type hpi_flavor frequency level place_name place_id    yr period index_nsa
   <chr>    <chr>      <chr>     <chr> <chr>      <chr>    <dbl>  <dbl>     <dbl>
 1 traditi… purchase-… monthly   USA … East Nort… DV_ENC    1991      1      100 
 2 traditi… purchase-… monthly   USA … East Nort… DV_ENC    1991      2      101.
 3 traditi… purchase-… monthly   USA … East Nort… DV_ENC    1991      3      101.
 4 traditi… purchase-… monthly   USA … East Nort… DV_ENC    1991      4      102.
 5 traditi… purchase-… monthly   USA … East Nort… DV_ENC    1991      5      102.
 6 traditi… purchase-… monthly   USA … East Nort… DV_ENC    1991      6      103.
 7 traditi… purchase-… monthly   USA … East Nort… DV_ENC    1991      7      103.
 8 traditi… purchase-… monthly   USA … East Nort… DV_ENC    1991      8      103.
 9 traditi… purchase-… monthly   USA … East Nort… DV_ENC    1991      9      103.
10 traditi… purchase-… monthly   USA … East Nort… DV_ENC    1991     10      103.
# … with 108,816 more rows, and 1 more variable: index_sa <dbl>
```
…
