Get started with pins • pins
…
As you can see, pins has chosen to save this data to a .rds file. But you can choose from a variety of other options depending on your goals:

type = "rds" uses writeRDS() to save a binary R data file. It can save any R object but it’s only readable from R, not other languages.

type = "csv" uses write.csv() to write a .csv file. CSVs can read by any application, but only support a simple columns (e.g. numbers, strings, dates) and are largely large and slow.

type = "arrow" uses arrow::write_feather() to create an arrow/feather file. Arrow is a modern, language-independent, high-performance, file format for design for data science. Not every tool can read arrow files, but support is growing rapidly.

type = "json" uses jsonlite::write_json() to create a .json file. Pretty much every programming language can read json files, but they only work well for nested lists.

In a future session, you can read that data back with pin_read():

board %>% pin_read("mtcars")
#> # A tibble: 32 x 11
#>      mpg   cyl  disp    hp  drat    wt  qsec    vs    am  gear  carb
#>    <dbl> <dbl> <dbl> <dbl> <dbl> <dbl> <dbl> <dbl> <dbl> <dbl> <dbl>
#>  1  21       6  160    110  3.9   2.62  16.5     0     1     4     4
#>  2  21       6  160    110  3.9   2.88  17.0     0     1     4     4
#>  3  22.8     4  108     93  3.85  2.32  18.6     1     1     4     1
#>  4  21.4     6  258    110  3.08  3.22  19.4     1     0     3     1
#>  5  18.7     8  360    175  3.15  3.44  17.0     0     0     3     2
#>  6  18.1     6  225    105  2.76  3.46  20.2     1     0     3     1
#>  7  14.3     8  360    245  3.21  3.57  15.8     0     0     3     4
#>  8  24.4     4  147.    62  3.69  3.19  20       1     0     4     2
#>  9  22.8     4  141.    95  3.92  3.15  22.9     1     0     4     2
#> 10  19.2     6  168.   123  3.92  3.44  18.3     1     0     4     4
#> # … with 22 more rows
…
The primary purpose of pins is to make it easy to share data. But pins is also designed to help you spend as little time as possible downloading data. pin_read() and pin_download() automatically cache remote pins: they maintain a local copy of the data (so it’s fast) but always check that it’s up to date (so your analysis doesn’t use stale data).

Wouldn’t it be nice if you could take advantage of this feature for any dataset on the internet? That’s the idea behind board_url() — you can assemble your own board from datasets, wherever they live on the internet. For example, this code create a board containing a single pin, penguins, that refers to some data I found on GitHub:

my_data <- board_url(c(
  "penguins" = "https://raw.githubusercontent.com/allisonhorst/palmerpenguins/master/inst/extdata/penguins_raw.csv"
))

You can read this data by combining pin_download() with read.csv()1:

my_data %>%
  pin_download("penguins") %>% 
  read.csv(check.names = FALSE) %>% 
  tibble::as_tibble()
#> # A tibble: 344 x 17
#>    studyName `Sample Number` Species       Region Island Stage   `Individual ID`
#>    <chr>               <int> <chr>         <chr>  <chr>  <chr>   <chr>          
#>  1 PAL0708                 1 Adelie Pengu… Anvers Torge… Adult,… N1A1           
#>  2 PAL0708                 2 Adelie Pengu… Anvers Torge… Adult,… N1A2           
#>  3 PAL0708                 3 Adelie Pengu… Anvers Torge… Adult,… N2A1           
#>  4 PAL0708                 4 Adelie Pengu… Anvers Torge… Adult,… N2A2           
#>  5 PAL0708                 5 Adelie Pengu… Anvers Torge… Adult,… N3A1           
#>  6 PAL0708                 6 Adelie Pengu… Anvers Torge… Adult,… N3A2           
#>  7 PAL0708                 7 Adelie Pengu… Anvers Torge… Adult,… N4A1           
#>  8 PAL0708                 8 Adelie Pengu… Anvers Torge… Adult,… N4A2           
#>  9 PAL0708                 9 Adelie Pengu… Anvers Torge… Adult,… N5A1           
#> 10 PAL0708                10 Adelie Pengu… Anvers Torge… Adult,… N5A2           
#> # … with 334 more rows, and 10 more variables: Clutch Completion <chr>,
#> #   Date Egg <chr>, Culmen Length (mm) <dbl>, Culmen Depth (mm) <dbl>,
#> #   Flipper Length (mm) <int>, Body Mass (g) <int>, Sex <chr>,
#> #   Delta 15 N (o/oo) <dbl>, Delta 13 C (o/oo) <dbl>, Comments <chr>
…
