RStudio Connect • pins
…
items <- xml %>% xml_find_all("//item")

bbc_news <- tibble::tibble(
  title = items %>% xml_find_first("./title") %>% xml_text(),
  date = items %>% xml_find_first("./pubDate") %>% xml_text(),
  url = items %>% xml_find_first("./guid") %>% xml_text()
)
bbc_news
#> # A tibble: 71 × 3
#>    title                              date            url                       
#>    <chr>                              <chr>           <chr>                     
#>  1 Diana interview: PM concerned aft… Fri, 21 May 20… https://www.bbc.co.uk/new…
#>  2 Covid in Scotland: Glasgow to be … Fri, 21 May 20… https://www.bbc.co.uk/new…
#>  3 Prince Harry says heavy drinking … Fri, 21 May 20… https://www.bbc.co.uk/new…
#>  4 Coronavirus: Spain to lift restri… Fri, 21 May 20… https://www.bbc.co.uk/new…
#>  5 Diana interview: Whistleblower wa… Fri, 21 May 20… https://www.bbc.co.uk/new…
#>  6 Mayhill: Swansea rioters face rob… Fri, 21 May 20… https://www.bbc.co.uk/new…
#>  7 UK to offer Australia tariff-free… Fri, 21 May 20… https://www.bbc.co.uk/new…
#>  8 Leonard Blavatnik named UK's rich… Fri, 21 May 20… https://www.bbc.co.uk/new…
#>  9 Lady Gaga had a 'psychotic break'… Fri, 21 May 20… https://www.bbc.co.uk/new…
#> 10 Big cats seized from park belongi… Fri, 21 May 20… https://www.bbc.co.uk/new…
#> # … with 61 more rows
…
