Find Pin — pin_find • pins
…
#> # A tibble: 6 x 4
#>   name               description                                    type  board 
#>   <chr>              <chr>                                          <chr> <chr> 
#> 1 hpiR/ex_sales      Subset of Seattle Home Sales from hpiR packag… table packa…
#> 2 hpiR/seattle_sales Seattle Home Sales from hpiR package.          table packa…
#> 3 latticeExtra/Seat… Daily Rainfall and Temperature at the Seattle… table packa…
#> 4 microsynth/seattl… Data for a crime intervention in Seattle, Was… table packa…
#> 5 vegawidget/data_s… Example dataset: Seattle daily weather from v… table packa…
#> 6 vegawidget/data_s… Example dataset: Seattle hourly temperatures … table packa…

# search pins related to 'london' in the 'packages' board
pin_find("london", board = "packages")

#> # A tibble: 30 x 4
#>    name                     description                             type  board 
#>    <chr>                    <chr>                                   <chr> <chr> 
#>  1 bsamGP/London.Mortality  Daily Moratlity in London from bsamGP … table packa…
#>  2 DAAG/poxetc              Deaths from various causes, in London … table packa…
#>  3 DAAG/whoops              Deaths from whooping cough, in London … table packa…
#>  4 epimdr/meas              Bi-weekly measles incidence in London … table packa…
#>  5 ev.trawl/hourly_bloomsb… Hourly measurements of 6 air pollutant… table packa…
#>  6 extremis/lse             Selected Stocks from the London Stock … table packa…
#>  7 geofacet/london_afford   london_afford from geofacet package.    table packa…
#>  8 HistData/Arbuthnot       Arbuthnot's data on male and female bi… table packa…
#>  9 HistData/Cholera         William Farr's Data on Cholera in Lond… table packa…
#> 10 jomo/ExamScores          Exam results for six inner London Educ… table packa…
#> # … with 20 more rows
…
