Track, Discover and Share Datasets • pins
…
find_pin("seattle", board = "packages")

## # A tibble: 4 x 4
##   name               description                               type  board 
##   <fct>              <fct>                                     <fct> <chr> 
## 1 hpiR_seattle_sales Seattle Home Sales from hpiR package.     table packa…
## 2 microsynth_seattl… Data for a crime intervention in Seattle… table packa…
## 3 vegawidget_data_s… Example dataset: Seattle daily weather f… table packa…
## 4 vegawidget_data_s… Example dataset: Seattle hourly temperat… table packa…

You can the retrieve a specific dataset with get_pin():

get_pin("hpiR_seattle_sales", board = "packages")

## # A tibble: 43,313 x 16
##    pinx  sale_id sale_price sale_date  use_type  area lot_sf  wfnt
##    <chr> <chr>        <int> <date>     <chr>    <int>  <int> <dbl>
##  1 ..00… 2013..…     289000 2013-02-06 sfr         79   9295     0
##  2 ..00… 2013..…     356000 2013-07-11 sfr         18   6000     0
##  3 ..00… 2010..…     333500 2010-12-29 sfr         79   7200     0
##  4 ..00… 2016..…     577200 2016-03-17 sfr         79   7200     0
##  5 ..00… 2012..…     237000 2012-05-02 sfr         79   5662     0
##  6 ..00… 2014..…     347500 2014-03-11 sfr         79   5830     0
##  7 ..00… 2012..…     429000 2012-09-20 sfr         18  12700     0
##  8 ..00… 2015..…     653295 2015-07-21 sfr         79   7000     0
##  9 ..00… 2014..…     427650 2014-02-19 townhou…    79   3072     0
## 10 ..00… 2015..…     488737 2015-03-19 townhou…    79   3072     0
## # … with 43,303 more rows, and 8 more variables: bldg_grade <int>,
## #   tot_sf <int>, beds <int>, baths <dbl>, age <int>, eff_age <int>,
## #   longitude <dbl>, latitude <dbl>

To search Kaggle datasets with find_pin(), you will have to download your token file from kaggle.com/me/account and then register the Kaggle board by running:

register_board("kaggle", token = "<path-to-kaggle.json>")

From now on, you can search the Kaggle board suing find_pin("seattle", board = "kaggle"), or you can also search all boards by not specyfing a particular board:

find_pin("seattle")

## # A tibble: 23 x 4
##    name                     description                        type  board 
##    <chr>                    <chr>                              <chr> <chr> 
##  1 hpiR_seattle_sales       Seattle Home Sales from hpiR pack… table packa…
##  2 microsynth_seattledmi    Data for a crime intervention in … table packa…
##  3 vegawidget_data_seattle… Example dataset: Seattle daily we… table packa…
##  4 vegawidget_data_seattle… Example dataset: Seattle hourly t… table packa…
##  5 airbnb/seattle           Seattle Airbnb Open Data           files kaggle
##  6 aaronschlegel/seattle-p… Seattle Pet Licenses               files kaggle
##  7 shanelev/seattle-airbnb… Seattle Airbnb Listings            files kaggle
##  8 sam/seattle-crime        Seattle Police Reports             files kaggle
##  9 seattle-public-library/… Seattle Library Checkout Records   files kaggle
## 10 city-of-seattle/seattle… Seattle Checkouts by Title         files kaggle
## # … with 13 more rows
…
