NA • pins
…
## # A tibble: 4 x 4
##   name               description                               type  board 
##   <chr>              <chr>                                     <chr> <chr> 
## 1 hpiR/seattle_sales Seattle Home Sales from hpiR package.     table packa…
## 2 microsynth/seattl… Data for a crime intervention in Seattle… table packa…
## 3 vegawidget/data_s… Example dataset: Seattle daily weather f… table packa…
## 4 vegawidget/data_s… Example dataset: Seattle hourly temperat… table packa…

Notice that all pins are referenced as <owner>/<name> and even if the <owner> is not provided, each board will assign an appropriate one. While you can ignore <owner> and reference pins by <name>, this can fail in some boards if different owners assign the same name to a pin.

You can then retrieve a pin as a local path through pin_get(),

pin_get("hpiR/seattle_sales")

## # A tibble: 43,313 x 16
##    pinx  sale_id sale_price sale_date  use_type  area lot_sf  wfnt
##    <chr> <chr>        <int> <date>     <chr>    <int>  <int> <dbl>
##  1 ..00… 2013..…     289000 2013-02-06 sfr         79   9295     0
##  2 ..00… 2013..…     356000 2013-07-11 sfr         18   6000     0
##  3 ..00… 2010..…     333500 2010-12-29 sfr         79   7200     0
##  4 ..00… 2016..…     577200 2016-03-17 sfr         79   7200     0
##  5 ..00… 2012..…     237000 2012-05-02 sfr         79   5662     0
##  6 ..00… 2014..…     347500 2014-03-11 sfr         79   5830     0
##  7 ..00… 2012..…     429000 2012-09-20 sfr         18  12700     0
##  8 ..00… 2015..…     653295 2015-07-21 sfr         79   7000     0
##  9 ..00… 2014..…     427650 2014-02-19 townhou…    79   3072     0
## 10 ..00… 2015..…     488737 2015-03-19 townhou…    79   3072     0
## # … with 43,303 more rows, and 8 more variables: bldg_grade <int>,
## #   tot_sf <int>, beds <int>, baths <dbl>, age <int>, eff_age <int>,
## #   longitude <dbl>, latitude <dbl>
…
