Using Databases • pins
…
You can also cache this dataset locally by running collect() on the pin and then re-pinning it with pin().

Sharing in Databases

We can reuse our bigrquery connection to define a database-backed shared board,

use_board("database", con)

Which we can also use to pin a dataset,

pin(iris, "iris", "The entire 'iris' dataset.")

## # A tibble: 150 x 5
##    Species    Petal_Width Petal_Length Sepal_Width Sepal_Length
##    <chr>            <dbl>        <dbl>       <dbl>        <dbl>
##  1 versicolor         1.1          3           2.5          5.1
##  2 versicolor         1            3.5         2            5  
##  3 versicolor         1            3.5         2.6          5.7
##  4 versicolor         1            4           2.2          6  
##  5 versicolor         1.2          4           2.6          5.8
##  6 versicolor         1.3          4           2.3          5.5
##  7 versicolor         1.3          4           2.8          6.1
##  8 versicolor         1.3          4           2.5          5.5
##  9 versicolor         1.5          4.5         3.2          6.4
## 10 versicolor         1.5          4.5         3            5.6
## # … with 140 more rows

find pins,

find_pin()

## # A tibble: 28 x 4
##    name                   description                        type   board  
##    <chr>                  <chr>                              <chr>  <chr>  
##  1 iris                   The entire 'iris' dataset.         table  databa…
##  2 iris-small-width       A subset of 'iris' with only smal… table  local  
##  3 iris-head              A subset of 'iris' with only smal… table  local  
##  4 sales                  ""                                 files  local  
##  5 python-df              ""                                 table  local  
##  6 bigquery               ""                                 formu… local  
##  7 hacker-news-full       The Hacker News dataset in Google… dbplyr local  
##  8 hacker-news-scores     ""                                 dbplyr local  
##  9 lava18/google-play-st… Google Play Store Apps             files  kaggle 
## 10 ronitf/heart-disease-… Heart Disease UCI                  files  kaggle 
## # … with 18 more rows

and retrieve shared datasets.

get_pin("iris")

## # A tibble: 150 x 5
##    Species    Petal_Width Petal_Length Sepal_Width Sepal_Length
##    <chr>            <dbl>        <dbl>       <dbl>        <dbl>
##  1 versicolor         1.1          3           2.5          5.1
##  2 versicolor         1            3.5         2            5  
##  3 versicolor         1            3.5         2.6          5.7
##  4 versicolor         1            4           2.2          6  
##  5 versicolor         1.2          4           2.6          5.8
##  6 versicolor         1.3          4           2.3          5.5
##  7 versicolor         1.3          4           2.8          6.1
##  8 versicolor         1.3          4           2.5          5.5
##  9 versicolor         1.5          4.5         3.2          6.4
## 10 versicolor         1.5          4.5         3            5.6
## # … with 140 more rows
…
