Posit Connect • pins
…
items <- xml %>% xml_find_all("//item")

bbc_news <- tibble::tibble(
  title = items %>% xml_find_first("./title") %>% xml_text(),
  date = items %>% xml_find_first("./pubDate") %>% xml_text(),
  url = items %>% xml_find_first("./guid") %>% xml_text()
)
bbc_news
#> # A tibble: 71 × 3
#>    title                                                       date  url  
#>    <chr>                                                       <chr> <chr>
#>  1 Diana interview: PM concerned after inquiry into BBC deceit Fri,… http…
#>  2 Covid in Scotland: Glasgow to be only Scottish area in lev… Fri,… http…
#>  3 Prince Harry says heavy drinking masked pain of mum Diana'… Fri,… http…
#>  4 Coronavirus: Spain to lift restrictions for UK and Japanes… Fri,… http…
#>  5 Diana interview: Whistleblower wants apology from BBC boss… Fri,… http…
#>  6 Mayhill: Swansea rioters face robust action, police vow     Fri,… http…
#>  7 UK to offer Australia tariff-free trade deal despite farme… Fri,… http…
#>  8 Leonard Blavatnik named UK's richest person with £23bn for… Fri,… http…
#>  9 Lady Gaga had a 'psychotic break' after sexual assault lef… Fri,… http…
#> 10 Big cats seized from park belonging to Tiger King couple    Fri,… http…
#> # ℹ 61 more rows
…
